3、封装函数，将整型  12345  转化为字符串  '12345'
4、封装函数，将整型字符串  '12345'  转化为 12345
5、封装函数，将浮点字符串  '3.14'   转化为 3.14
1、自己实现rfind函数

2、有如下形式字符串'IamAgoodBOY',字符串中的单词以大小写方式分隔书写，将其转换为如下形式'I am a good boy'
3、将列表中的数据用绝对值进行排序
	例如 [-2, 1, -8, -9]，排序后为[1, -2, -8, -9]
4、已知，字符串中有数字、小写字母、大写字母。要求去除字符串内的数字字符后，请将该字符串里的单词重新排序（a-z），并且重新输出一个排序后的字符 串。（保留大小写,a与A的顺序关系为：A在a前面。例：AaBb）
	'aA123BbcdeD'   'aABbcdeD'
	'AaBbcDde'
【注】不会出现只有大写字母，没有对应小写字母

5、判断字符串1中的所有字符是否都在字符串2中出现，如果都出现返回True，否则返回False
	'boy'  'bell love 18 years girl'  返回True

3、归属地查询类封装
4、英汉字典类封装
2、封装歌词解析类

1、班级学生类
	学生类：
		属性：姓名，年龄，性别，成绩，学号
	班级类：
		属性：班级号，班级口号，学生列表
		方法：
			显示所有学生
			根据学号查找学生
			添加一个学生
			根据学号删除一个学生
			按照成绩对学生进行排序

3、银行管理系统（选做）
	卡类
		卡号
		金额
		密码
		锁定
	用户类
		名字
		身份证号
		卡
	操作类
		开户
		查询
		转账
		取款
		存款
		销户
		锁定
		改密
		解锁
		退出
	管理员类
		账号
		密码
		欢迎界面
		菜单界面
		登录操作

